{
    "headerlist":[
        {"header":"","value":"numberSchemeId","width":10,"type":"radio","search_key":"number_scheme_id"},
        {"header":"Scheme Name","value":"schemeName","width":30,"type":"","search_key":"scheme_name"},
        {"header":"Number Type","value":"numberType","width":20,"type":"","search_key":"number_type"},
        {"header":"Format","value":"format","width":20,"type":"","search_key":"format"},
        {"header":"Area","value":"area","width":20,"type":"","search_key":"area"}
    ],
    "page":{
        "content":[
            {"numberSchemeId":1,"schemeName":"MSISDN-1", "numberType":"MSISDNA","format":"98NNNNNNN","area":"Maharshtra","createdBy":"a123jsd2716","createdDate":"2022-05-25","updatedBy":null,"updatedDate":null,"isDeleted":false},
            {"numberSchemeId":2,"schemeName":"MSISDN-2", "numberType":"MSISDNB","format":"98NNNNNNN","area":"Maharshtra","createdBy":"a123jsd2716","createdDate":"2022-05-25","updatedBy":null,"updatedDate":null,"isDeleted":false},
            {"numberSchemeId":3,"schemeName":"MSISDN-3", "numberType":"MSISDNC","format":"98NNNNNNN","area":"Maharshtra","createdBy":"a123jsd2716","createdDate":"2022-05-25","updatedBy":null,"updatedDate":null,"isDeleted":false}
        ],
        "pageable":{"offset":0,"pageSize":5},
        "first":true,"last":false,"totalPages":2,"totalElements":6,"pageNumber":1,"numberOfElements":5,
        "sort":{"empty":false,"sorted":true,"unsorted":false},
        "sortObjects":{"key":"numberSchemeId","value":"ASC"}
    }
}