{
    "headerlist":[
        {"header":"","value":"permissionId","width":5,"type":"radio","search_key":"permission_id"},
        {"header":"Name","value":"permissionName","width":25,"type":"","search_key":"permission_name"},
        {"header":"Description","value":"permissionDescription","width":25,"type":"","search_key":"permission_name"},
        {"header":"Type","value":"permissionType","width":25,"type":"","search_key":"policy_name"}
        
    ],
    "page":{
        "content":[
            {"permissionId":1,"permissionName":"Default Permission", "permissionDescription":"A permission that applies to the default resource type","permissionType":"resource","createdBy":"a123jsd2716","createdDate":"2022-05-25","updatedBy":null,"updatedDate":null,"isDeleted":false}   
        ],
        "pageable":{"offset":0,"pageSize":5},
        "first":true,"last":false,"totalPages":2,"totalElements":6,"pageNumber":1,"numberOfElements":5,
        "sort":{"empty":false,"sorted":true,"unsorted":false},
        "sortObjects":{"key":"authId","value":"ASC"}
    }
}